government = monarchy
add_government_reform = autocracy_reform
government_rank = 1
primary_culture = peitar
religion = eordellon
technology_group = tech_eordand
capital = 2042
historical_friend = H08 #Pelomar
historical_friend = H20 #Trimgarb
historical_friend = H09 #Iadth
historical_friend = H19 #Strutmar

1430.3.5 = {
	monarch = {
		name = "Taelarian"
		dynasty = "Swiftsword"
		birth_date = 1413.6.8
		adm = 3
		dip = 2
		mil = 5
	}
	add_ruler_personality = charismatic_negotiator_personality
	heir = {
		name = "Seronna"
		monarch_name = "Seronna III"
		dynasty = "Swiftsword"
		birth_date = 1438.5.2
		death_date = 1481.3.2
		female = yes
		claim = 95
		adm = 4
		dip = 4
		mil = 2
	}
	queen = {
		country_of_origin = H08
		name = "Mihtriel"
		dynasty = "Oathsworn"
		birth_date = 1414.7.20
		death_date = 1475.4.10
		female = yes
		adm = 2
		dip = 4
		mil = 1
	}
}