namespace = venail

# Alariandel old navigator
country_event = {
	id = venail.1
	title = venail.1.t
	desc = venail.1.d
	picture = BARBARY_PIRATES_eventPicture
	
	is_triggered_only = yes
	
	trigger = {
		always = yes
	}
	
	option = {
        name = venail.1.a
        ai_chance = { factor = 100 }
		define_explorer = {
			shock = 5
			fire = 6
			manuever = 7
			siege = 3
			name = "Alariandel"
		}
		add_country_modifier = {
			name = alariandel_impulse
			duration = -1
		}
		if = {
			limit = {ai = yes}
			random_owned_province = {
				limit = { has_port = yes }
				ROOT = {
					heavy_ship = PREV
					heavy_ship = PREV
					heavy_ship = PREV
				}
			}
		}
	}
}
## Send loan demand to Damescrown
country_event = {
	id = venail.2
	title = venail.2.t
	desc = venail.2.d
	picture = ADVISOR_eventPicture
	
	is_triggered_only = yes
	
	trigger = {
		always = yes
	}
	
	option = {
        name = venail.2.a
        ai_chance = { factor = 100 }
		A25 = {country_event = {id = venail.3 days = 20 random = 10}}
	}
	
	option = {
        name = venail.2.b
        ai_chance = { factor = 0 }
	}
}
## Damescrown receive loan demand
country_event = {
	id = venail.3
	title = venail.3.t
	desc = venail.3.d
	picture = ADVISOR_eventPicture
	
	is_triggered_only = yes
	
	trigger = {
		always = yes
	}
	
	option = {
        name = venail.3.a
        ai_chance = { factor = 100 }
		add_country_modifier = {
			name = damescrown_payment
			duration = 36500
		}
		A21 = {country_event = {id = venail.4 days = 20 random = 10}}
	}
	
	#Damescrown refuse (player only)
	option = {
        name = venail.3.b
        ai_chance = { factor = 0 }
		A21 = {country_event = {id = venail.9 days = 20 random = 10}}
	}
}

### Damescrown accepted
country_event = {
	id = venail.4
	title = venail.4.t
	desc = venail.4.d
	picture = CORRUPTION_eventPicture
	
	is_triggered_only = yes
	
	trigger = {
		always = yes
	}
	
	option = {
        name = venail.4.a
        ai_chance = { factor = 100 }
		add_prestige = 10
		add_dip_power = 150
		add_adm_power = 150
		add_treasury = 500
		if = {
			limit = { ai = no}
			add_country_modifier = {
				name = damescrown_funding
				duration = 18250
			}
		}
		else = {
			add_country_modifier = {
				name = damescrown_funding_ai
				duration = 23500
			}
		}
		A25 = {country_event = {id = venail.5 days = 36500}}
	}
}

### Damescrown ask repayment
country_event = {
	id = venail.5
	title = venail.5.t
	desc = venail.5.d
	picture = DIPLOMACY_eventPicture
	
	is_triggered_only = yes
	
	trigger = {
		always = yes
	}
	
	option = {
		trigger = { exists = A21 } #If Venail
        name = venail.5.a
        ai_chance = { factor = 100 }
		A21 = {country_event = {id = venail.6 days = 30}}
	}
	
	option = {
		trigger = { exists = Z43 } #If Aelnar
        name = venail.5.b
        ai_chance = { factor = 100 }
		Z43 = {country_event = {id = venail.6 days = 30}}
	}
}


### Venail receive demand
country_event = {
	id = venail.6
	title = venail.6.t
	desc = venail.6.d
	picture = DIPLOMACY_eventPicture
	
	is_triggered_only = yes
	
	trigger = {
		always = yes
	}
	
	### Pay now in full
	option = {
        name = venail.6.a
        ai_chance = { factor = 25 }
		add_treasury = -3000
		A25 = { add_treasury = 3000 }
		A25 = { country_event = { id = venail.7 } }
	}
	
	###Slow repayment
	option = {
		name = venail.6.b
        ai_chance = { factor = 65 }
		add_country_modifier = {
			name = venail_repay_loan
			duration = 27375
		}
		A25 = {
			add_country_modifier = {
				name = venail_damescrown_receive_loan
				duration = 27357
			}
			country_event = { id = venail.7 }
		}
	}
	###Give them big port
	option = {
		name = venail.6.c
        ai_chance = { factor = 0 }
		trigger = {
			any_owned_province = {
				has_province_modifier = venail_cestircel
			}
		}
		random_province = {
			limit = {
				has_province_modifier = venail_cestircel
			}
			cede_province = A25
			add_core = A25
			remove_core = ROOT
		}
		A25 = {
			country_event = { id = venail.7 }
			set_country_flag = repayment_with_port
		}
	}
	### Refuse
	option = {
		name = venail.6.d
        ai_chance = { factor = 10 }
		every_country = {
			limit = {
				capital_scope = { superregion = western_cannor_superregion }
			}
			add_trust = {
				who = ROOT
				value = -45
			}
		}
		add_historical_rival = A25
		A25 = {
			set_country_flag = repayment_denied
			country_event = {id = venail.7}
		}
	}
}

### Damescrown response
country_event = {
	id = venail.7
	title = venail.7.t
	desc = {
		trigger = { NOT = { has_country_flag = repayment_denied } }
		desc = venail.7.d.a
	}
	desc = {
		trigger = { has_country_flag = repayment_denied }
		desc = venail.7.d.b
	}
	picture = GREAT_BUILDING_eventPicture
	
	is_triggered_only = yes
	
	trigger = {
		always = yes
	}
	
	### Payment done
	option = {
		trigger = {
			NOT = { has_country_flag = repayment_denied }
		}
        name = venail.7.a
        ai_chance = { factor = 0 }
		add_prestige = 25
	}
	### Investing options
	# Develop
	option = {
		trigger = {
			NOT = { has_country_flag = repayment_denied }
			NOT = { has_country_flag = repayment_with_port }
		}
		if = {
			limit = { has_country_modifier = venail_damescrown_receive_loan }
			remove_country_modifier = venail_damescrown_receive_loan
		}
		else = { add_treasury = -3000 }
        name = venail.7.b
        ai_chance = { factor = 5 }
		add_prestige = 25
		capital_scope = {
			add_base_manpower = 2
			add_base_production = 2
			add_base_tax = 2
			area = {
				add_base_manpower = 1
				add_base_production = 1
				add_base_tax = 1
			}
		}
	}
	# Gain Exclusive trade
	option = {
		trigger = {
			NOT = { has_country_flag = repayment_denied }
			NOT = { has_country_flag = repayment_with_port }
		}
		if = {
			limit = { has_country_modifier = venail_damescrown_receive_loan }
			remove_country_modifier = venail_damescrown_receive_loan
		}
		else = { add_treasury = -3000 }
        name = venail.7.c
        ai_chance = { factor = 95 }
		add_prestige = 25
		capital_scope = {
			add_base_manpower = 2
			add_base_production = 2
			add_base_tax = 2
			change_trade_goods = precursor_relics
			set_province_flag = permanent_relics
			add_province_modifier = {
				name = aelnar_exclusive_trade
				duration = -1
			}
		}
	}
	### Refused payment
	option = {
		trigger = {
			has_country_flag = repayment_denied
		}
		name = venail.7.e
        ai_chance = { factor = 100 }
		clr_country_flag = repayment_denied
		add_prestige = -25
		random_province = {
			limit = {
				has_province_modifier = venail_cestircel
			}
			add_permanent_claim = ROOT
		}
		add_historical_rival = A21
		add_historical_rival = Z43
		Z43 = { 
			add_country_modifier =  {
				name = mischievious_elf
				duration = -1
			}
		}
		A21 = { 
			add_country_modifier =  {
				name = mischievious_elf
				duration = -1
			}
		}
	}
}


### Lore event when doing last mission
country_event = {
	id = venail.8
	title = venail.8.t
	desc = venail.8.d
	picture = HOUSE_OF_TRADE_eventPicture
	
	is_triggered_only = yes
	
	trigger = {
		always = yes
	}
	
	option = {
        name = venail.8.a
        ai_chance = { factor = 25 }
	}
}

### Damescrown refuse to give the loan
country_event = {
	id = venail.9
	title = venail.9.t
	desc = venail.9.d
	picture = BANKRUPTCY_eventPicture
	
	is_triggered_only = yes
	
	trigger = {
		always = yes
	}
	
	option = {
        name = venail.9.a
        ai_chance = { factor = 25 }
	}
}


### Thing to help the AI
#relation with damescrown
country_event = {
	id = venail.100
	title = venail.100.t
	desc = venail.100.d
	picture = ARTWORK_eventPicture
	
	fire_only_once = yes
	
	mean_time_to_happen = {
		days = 1
	}
	
	trigger = {
		ai = yes
		has_country_flag = venail_ai_damescrown
	}
	
	option = {
        name = venail.100.a
        ai_chance = { factor = 100 }
		add_opinion = {
			who = A25
			modifier = venail_damescrown_loan
		}
		reverse_add_opinion = {
			who = A25
			modifier = venail_damescrown_loan
		}
		clr_country_flag = venail_ai_damesdrown
	}
}
#new dawn habor
country_event = {
	id = venail.101
	title = venail.100.t
	desc = venail.100.d
	picture = ARTWORK_eventPicture
	
	fire_only_once = yes
	
	mean_time_to_happen = {
		days = 30
	}
	
	trigger = {
		ai = yes
		tag = A21
		any_province = {
				is_city = yes 
				has_port = yes
				OR = {
					colonial_region = colonial_endralliande
					colonial_region = colonial_isles
					colonial_region = colonial_dalaire
					province_id = 927
				}
				NOT = {development = 15}
				country_or_non_sovereign_subject_holds = A21
		}
	}
	
	option = {
        name = venail.100.a
        ai_chance = { factor = 100 }
		random_province = {
			limit = {
				is_city = yes 
				has_port = yes
				OR = {
					colonial_region = colonial_endralliande
					colonial_region = colonial_isles
					colonial_region = colonial_dalaire
					province_id = 927
				}
				NOT = {development = 15}
				country_or_non_sovereign_subject_holds = A21
			}
			add_base_production = 5
			add_base_tax = 5
			add_base_manpower = 5
		}
	}
}
# Province in noruin
country_event = {
	id = venail.102
	title = venail.100.t
	desc = venail.100.d
	picture = ARTWORK_eventPicture
	
	fire_only_once = yes
	
	mean_time_to_happen = {
		days = 1
	}
	
	trigger = {
		ai = yes
		has_country_flag = venail_ai_noruin
		tag = A21
	}
	
	option = {
        name = venail.100.a
        ai_chance = { factor = 100 }
		random_province = {
			limit = {
				OR = {
					area = areatb22_area
					area = areatb21_area
					area = cestirmark_area
				}
				NOT = {is_city = yes}
				has_port = yes
			}
			cede_province = A21
			create_colony = 200
			add_colonysize = 1000
			change_trade_goods = gems
			add_core = A21
			add_base_tax = 6
			add_base_manpower = 6
			add_base_production = 6
			change_culture = moon_elf
			change_religion = elven_forebears
		}
		clr_country_flag = venail_ai_noruin
	}
}

country_event = {
	id = venail.103
	title = venail.100.t
	desc = venail.100.d
	picture = ARTWORK_eventPicture
	
	fire_only_once = yes
	
	mean_time_to_happen = {
		days = 1
	}
	
	trigger = {
		ai = yes
		tag = A21
		dip_tech = 5
		NOT = {adm_tech = 5}
	}
	
	option = {
        name = venail.100.a
        ai_chance = { factor = 100 }
		if = {
			limit = {adm_tech = 3}
			add_adm_tech = 2
		}
		else_if = {
			limit = {adm_tech = 4}
			add_adm_tech = 1
		}
	}
}

country_event = {
	id = venail.104
	title = venail.100.t
	desc = venail.100.d
	picture = ARTWORK_eventPicture
	
	fire_only_once = yes
	
	mean_time_to_happen = {
		days = 360
	}
	
	trigger = {
		ai = yes
		tag = A21
		capital_scope = {
			colonial_region = colonial_noruin
			province_has_center_of_trade_of_level = 2
		}
	}
	
	option = {
        name = venail.100.a
        ai_chance = { factor = 100 }
		capital_scope = {
			add_center_of_trade_level = 1
		}
	}
}